{"page":2,"total_results":6444,"total_pages":323,"results":[{"vote_count":722,"id":538362,"video":false,"vote_average":8.4,"title":"On My Skin","popularity":14.353,"poster_path":"\/woamzsZd0F4TF5kA00Dpy3ahGtB.jpg","original_language":"it","original_title":"Sulla mia pelle","genre_ids":[18],"backdrop_path":"\/lpuehRS74pgVYIQ6ZQ2fIAaoAvo.jpg","adult":false,"overview":"The incredible true story behind the most controversial Italian court cases in recent years. Stefano Cucchi was arrested for a minor crime and mysteriously found dead during his detention. In one week's time, a family is changed forever.","release_date":"2018-08-29"},{"vote_count":6742,"id":244786,"video":false,"vote_average":8.4,"title":"Whiplash","popularity":26.022,"poster_path":"\/lIv1QinFqz4dlp5U4lQ6HaiskOZ.jpg","original_language":"en","original_title":"Whiplash","genre_ids":[18],"backdrop_path":"\/6bbZ6XyvgfjhQwbplnUh1LSj1ky.jpg","adult":false,"overview":"Under the direction of a ruthless instructor, a talented young drummer begins to pursue perfection at any cost, even his humanity.","release_date":"2014-10-10"},{"vote_count":1257,"id":346,"video":false,"vote_average":8.4,"title":"Seven Samurai","popularity":11.162,"poster_path":"\/v6xrz4fr92KY1oNC3HsEvrsvR1n.jpg","original_language":"ja","original_title":"七人の侍","genre_ids":[28,18],"backdrop_path":"\/61vLiK96sbXeHpQiMxI4CuqBA3z.jpg","adult":false,"overview":"A samurai answers a village's request for protection after he falls on hard times. The town needs protection from bandits, so the samurai gathers six others to help him teach the people how to defend themselves, and the villagers provide the soldiers with food. A giant battle occurs when 40 bandits attack the village.","release_date":"1954-04-26"},{"vote_count":1672,"id":12477,"video":false,"vote_average":8.4,"title":"Grave of the Fireflies","popularity":0.6,"poster_path":"\/4u1vptE8aXuzb5zauZTmikyectV.jpg","original_language":"ja","original_title":"火垂るの墓","genre_ids":[16,18,10752],"backdrop_path":"\/fCUIuG7y4YKC3hofZ8wsj7zhCpR.jpg","adult":false,"overview":"In the final months of World War II, 14-year-old Seita and his sister Setsuko are orphaned when their mother is killed during an air raid in Kobe, Japan. After a falling out with their aunt, they move into an abandoned bomb shelter. With no surviving relatives and their emergency rations depleted, Seita and Setsuko struggle to survive.","release_date":"1988-04-16"},{"vote_count":253,"id":18491,"video":false,"vote_average":8.4,"title":"Neon Genesis Evangelion: The End of Evangelion","popularity":8.482,"poster_path":"\/5JYzfyKBwReaQ41WFhqXgOZnPWV.jpg","original_language":"ja","original_title":"新世紀エヴァンゲリオン劇場版 THE END OF EVANGELION","genre_ids":[18,878,16],"backdrop_path":"\/AfyuI3glMCBDFmNPj9PY6DwbgGp.jpg","adult":false,"overview":"The second of two theatrically released follow-ups to the Neon Genesis Evangelion series. Comprising of two alternate episodes which were first intended to take the place of episodes 25 and 26, this finale answers many of the questions surrounding the series, while also opening up some new possibilities.","release_date":"1997-07-19"},{"vote_count":11504,"id":122,"video":false,"vote_average":8.3,"title":"The Lord of the Rings: The Return of the King","popularity":24.773,"poster_path":"\/rCzpDGLbOoPwLjy3OAm5NUPOTrC.jpg","original_language":"en","original_title":"The Lord of the Rings: The Return of the King","genre_ids":[12,14,28],"backdrop_path":"\/8BPZO0Bf8TeAy8znF43z8soK3ys.jpg","adult":false,"overview":"Aragorn is revealed as the heir to the ancient kings as he, Gandalf and the other members of the broken fellowship struggle to save Gondor from Sauron's forces. Meanwhile, Frodo and Sam bring the ring closer to the heart of Mordor, the dark lord's realm.","release_date":"2003-12-01"},{"vote_count":3458,"id":429,"video":false,"vote_average":8.3,"title":"The Good, the Bad and the Ugly","popularity":16.925,"poster_path":"\/wfPHdfofBD5PN96dV96a51B3Ja2.jpg","original_language":"it","original_title":"Il buono, il brutto, il cattivo","genre_ids":[37],"backdrop_path":"\/xGC2fY5KFmtuXnsuQwYQKFOLZFy.jpg","adult":false,"overview":"While the Civil War rages between the Union and the Confederacy, three men – a quiet loner, a ruthless hit man and a Mexican bandit – comb the American Southwest in search of a strongbox containing $200,000 in stolen gold.","release_date":"1966-12-23"},{"vote_count":725,"id":901,"video":false,"vote_average":8.3,"title":"City Lights","popularity":8.923,"poster_path":"\/bXNvzjULc9jrOVhGfjcc64uKZmZ.jpg","original_language":"en","original_title":"City Lights","genre_ids":[35,18,10749],"backdrop_path":"\/vT6ux2rdyg2kexuLisO5Ygz7pHg.jpg","adult":false,"overview":"City Lights is the first silent film that Charlie Chaplin directed after he established himself with sound accompanied films. The film is about a penniless man who falls in love with a flower girl. The film was a great success and today is deemed a cult classic.","release_date":"1931-02-26"},{"vote_count":867,"id":599,"video":false,"vote_average":8.3,"title":"Sunset Boulevard","popularity":9.765,"poster_path":"\/oFwzvRgfxJc0FUr2mwYTi10dk3G.jpg","original_language":"en","original_title":"Sunset Boulevard","genre_ids":[18],"backdrop_path":"\/u44VbUuoP6OZYEBv2DRd7ShPTMp.jpg","adult":false,"overview":"A hack screenwriter writes a screenplay for a former silent-film star who has faded into Hollywood obscurity.","release_date":"1950-08-10"},{"vote_count":207,"id":452522,"video":false,"vote_average":8.3,"title":"Twin Peaks","popularity":8.302,"poster_path":"\/zQsEi6096L7PvowV39dtdqdW16f.jpg","original_language":"en","original_title":"Twin Peaks","genre_ids":[18,9648],"backdrop_path":"\/xqjGKLwLZeujg4fiBTOqhZkoL31.jpg","adult":false,"overview":"Undercurrents of passion, greed, jealousy and intrigue surface in a seemingly respectable town when a high school homecoming queen is found murdered.","release_date":"1989-12-31"},{"vote_count":185,"id":26451,"video":false,"vote_average":8.3,"title":"Investigation of a Citizen Above Suspicion","popularity":7.009,"poster_path":"\/e9Bqg1QiWVvV1cuQ4Qo8rJEyHuG.jpg","original_language":"it","original_title":"Indagine su un cittadino al di sopra di ogni sospetto","genre_ids":[18,80],"backdrop_path":"\/tJaeWoH1UJPyeIU2yd9YJgeghFC.jpg","adult":false,"overview":"A chief of detectives, homicide section, commits a murder and deliberately leaves clues to prove his own responsibility for the crime.","release_date":"1970-02-09"},{"vote_count":4953,"id":73,"video":false,"vote_average":8.3,"title":"American History X","popularity":15.92,"poster_path":"\/fXepRAYOx1qC3wju7XdDGx60775.jpg","original_language":"en","original_title":"American History X","genre_ids":[18],"backdrop_path":"\/i9A0UMFg1hI2kLyCCwnmSbpT2cd.jpg","adult":false,"overview":"Derek Vineyard is paroled after serving 3 years in prison for killing two thugs who tried to break into\/steal his truck. Through his brother, Danny Vineyard's narration, we learn that before going to prison, Derek was a skinhead and the leader of a violent white supremacist gang that committed acts of racial crime throughout L.A. and his actions greatly influenced Danny. Reformed and fresh out of prison, Derek severs contact with the gang and becomes determined to keep Danny from going down the same violent path as he did.","release_date":"1998-10-30"},{"vote_count":1204,"id":914,"video":false,"vote_average":8.3,"title":"The Great Dictator","popularity":9.788,"poster_path":"\/5Sukn9kDDoUQgoCZOR1YbbjxPoi.jpg","original_language":"en","original_title":"The Great Dictator","genre_ids":[35],"backdrop_path":"\/qkpsvso2neEr7v6YnyMoZtm6R9F.jpg","adult":false,"overview":"Dictator Adenoid Hynkel tries to expand his empire while a poor Jewish barber tries to avoid persecution from Hynkel's regime.","release_date":"1940-10-15"},{"vote_count":607,"id":374430,"video":false,"vote_average":8.3,"title":"Black Mirror: White Christmas","popularity":7.068,"poster_path":"\/he609rnU3tiwBjRklKNa4n2jQSd.jpg","original_language":"en","original_title":"Black Mirror: White Christmas","genre_ids":[18,9648,878,53,10770],"backdrop_path":"\/rMCew7St2vy9iV3QOPzx15sAkFJ.jpg","adult":false,"overview":"In a mysterious and remote snowy outpost, Matt and Potter share a Christmas meal, swapping creepy tales of their earlier lives in the outside world, but are both men who they appear to be?","release_date":"2014-12-16"},{"vote_count":3325,"id":4935,"video":false,"vote_average":8.3,"title":"Howl's Moving Castle","popularity":15.223,"poster_path":"\/iMarB2ior30OAXjPa7QIdeyUfM1.jpg","original_language":"ja","original_title":"ハウルの動く城","genre_ids":[14,16,12],"backdrop_path":"\/cGyqa5PxiWSsG7NSw3ufCj0JW9k.jpg","adult":false,"overview":"When Sophie, a shy young woman, is cursed with an old body by a spiteful witch, her only chance of breaking the spell lies with a self-indulgent yet insecure young wizard and his companions in his legged, walking home.","release_date":"2004-11-19"},{"vote_count":8673,"id":1891,"video":false,"vote_average":8.3,"title":"The Empire Strikes Back","popularity":15.249,"poster_path":"\/9SKDSFbaM6LuGqG1aPWN3wYGEyD.jpg","original_language":"en","original_title":"The Empire Strikes Back","genre_ids":[12,28,878],"backdrop_path":"\/amYkOxCwHiVTFKendcIW0rSrRlU.jpg","adult":false,"overview":"The epic saga continues as Luke Skywalker, in hopes of defeating the evil Galactic Empire, learns the ways of the Jedi from aging master Yoda. But Darth Vader is more determined than ever to capture Luke. Meanwhile, rebel leader Princess Leia, cocky Han Solo, Chewbacca, and droids C-3PO and R2-D2 are thrown into various stages of capture, betrayal and despair.","release_date":"1980-05-20"},{"vote_count":202,"id":14537,"video":false,"vote_average":8.3,"title":"Harakiri","popularity":7.634,"poster_path":"\/k2SE5P8expiI4Pt9qzIX0xJn94E.jpg","original_language":"ja","original_title":"切腹","genre_ids":[28,18,36],"backdrop_path":"\/pz9fxHyGiiNLZ21bccAtwrMAH7f.jpg","adult":false,"overview":"Aging samurai Hanshiro Tsugumo arrives at the home of Kageyu Saito and asks to commit a ritual suicide on the property, which Saito thinks is a ploy to gain pity and a job. Saito tells Tsugumo of another samurai, Motome Chijiiwa, who threatened suicide as a stratagem, only to be forced to follow through on the task. When Tsugumo reveals that Chijiiwa was his son-in-law, the disclosure sets off a fierce conflict.","release_date":"1962-09-15"},{"vote_count":3174,"id":128,"video":false,"vote_average":8.3,"title":"Princess Mononoke","popularity":13.667,"poster_path":"\/mNqZOtJIQfFQPjo3hmYLIn8Qqhf.jpg","original_language":"ja","original_title":"もののけ姫","genre_ids":[12,14,16],"backdrop_path":"\/fV27iSj7EDz7W3ud0JyfTnzz58R.jpg","adult":false,"overview":"Ashitaka, a prince of the disappearing Ainu tribe, is cursed by a demonized boar god and must journey to the west to find a cure. Along the way, he encounters San, a young human woman fighting to protect the forest, and Lady Eboshi, who is trying to destroy it. Ashitaka must find a way to bring balance to this conflict.","release_date":"1997-07-12"},{"vote_count":2775,"id":598,"video":false,"vote_average":8.3,"title":"City of God","popularity":12.316,"poster_path":"\/gCqnQaq8T4CfioP9uETLx9iMJF4.jpg","original_language":"pt","original_title":"Cidade de Deus","genre_ids":[18,80],"backdrop_path":"\/k4BAPrE5WkNLvpsPsiMfu8W4Zyi.jpg","adult":false,"overview":"Cidade de Deus is a shantytown that started during the 1960s and became one of Rio de Janeiro’s most dangerous places in the beginning of the 1980s. To tell the story of this place, the movie describes the life of various characters, all seen by the point of view of the narrator, Buscapé. Buscapé was raised in a very violent environment. Despite the feeling that all odds were against him, he finds out that life can be seen with other eyes...","release_date":"2002-02-05"},{"vote_count":236,"id":20914,"video":false,"vote_average":8.3,"title":"My Friends","popularity":4.92,"poster_path":"\/2n6BSqurUOVBlsigtGAfedBzn53.jpg","original_language":"it","original_title":"Amici miei","genre_ids":[35],"backdrop_path":"\/fWzP4LZLTVVLxF0CXMgKld7u9Li.jpg","adult":false,"overview":"Like in many other Monicelli movies, the main theme of Amici miei is friendship, seen from a rather bitter point of view. It tells the story of four middle-aged friends in Florence who organize together idle pranks (called zingarate, \"gypsy shenanigans\") in a continuous attempt to prolong childhood during their adult life.","release_date":"1975-06-06"}]}